^C:\USERS\ASUS\DOCUMENTS\ISEP\3º ANO\1º SEMESTRE\LAPR5\PROJECTO\IRUDROID-TECHNOLOGIES-LAPR5\WALKMAZE\LIB\FTGL-2.1.3~RC5\MSVC\VC8\DEBUG\FTBITMAPFONT.OBJ|C:\USERS\ASUS\DOCUMENTS\ISEP\3º ANO\1º SEMESTRE\LAPR5\PROJECTO\IRUDROID-TECHNOLOGIES-LAPR5\WALKMAZE\LIB\FTGL-2.1.3~RC5\MSVC\VC8\DEBUG\FTBITMAPGLYPH.OBJ|C:\USERS\ASUS\DOCUMENTS\ISEP\3º ANO\1º SEMESTRE\LAPR5\PROJECTO\IRUDROID-TECHNOLOGIES-LAPR5\WALKMAZE\LIB\FTGL-2.1.3~RC5\MSVC\VC8\DEBUG\FTBUFFER.OBJ|C:\USERS\ASUS\DOCUMENTS\ISEP\3º ANO\1º SEMESTRE\LAPR5\PROJECTO\IRUDROID-TECHNOLOGIES-LAPR5\WALKMAZE\LIB\FTGL-2.1.3~RC5\MSVC\VC8\DEBUG\FTBUFFERFONT.OBJ|C:\USERS\ASUS\DOCUMENTS\ISEP\3º ANO\1º SEMESTRE\LAPR5\PROJECTO\IRUDROID-TECHNOLOGIES-LAPR5\WALKMAZE\LIB\FTGL-2.1.3~RC5\MSVC\VC8\DEBUG\FTBUFFERGLYPH.OBJ|C:\USERS\ASUS\DOCUMENTS\ISEP\3º ANO\1º SEMESTRE\LAPR5\PROJECTO\IRUDROID-TECHNOLOGIES-LAPR5\WALKMAZE\LIB\FTGL-2.1.3~RC5\MSVC\VC8\DEBUG\FTCHARMAP.OBJ|C:\USERS\ASUS\DOCUMENTS\ISEP\3º ANO\1º SEMESTRE\LAPR5\PROJECTO\IRUDROID-TECHNOLOGIES-LAPR5\WALKMAZE\LIB\FTGL-2.1.3~RC5\MSVC\VC8\DEBUG\FTCONTOUR.OBJ|C:\USERS\ASUS\DOCUMENTS\ISEP\3º ANO\1º SEMESTRE\LAPR5\PROJECTO\IRUDROID-TECHNOLOGIES-LAPR5\WALKMAZE\LIB\FTGL-2.1.3~RC5\MSVC\VC8\DEBUG\FTEXTRUDEFONT.OBJ|C:\USERS\ASUS\DOCUMENTS\ISEP\3º ANO\1º SEMESTRE\LAPR5\PROJECTO\IRUDROID-TECHNOLOGIES-LAPR5\WALKMAZE\LIB\FTGL-2.1.3~RC5\MSVC\VC8\DEBUG\FTEXTRUDEGLYPH.OBJ|C:\USERS\ASUS\DOCUMENTS\ISEP\3º ANO\1º SEMESTRE\LAPR5\PROJECTO\IRUDROID-TECHNOLOGIES-LAPR5\WALKMAZE\LIB\FTGL-2.1.3~RC5\MSVC\VC8\DEBUG\FTFACE.OBJ|C:\USERS\ASUS\DOCUMENTS\ISEP\3º ANO\1º SEMESTRE\LAPR5\PROJECTO\IRUDROID-TECHNOLOGIES-LAPR5\WALKMAZE\LIB\FTGL-2.1.3~RC5\MSVC\VC8\DEBUG\FTFONT.OBJ|C:\USERS\ASUS\DOCUMENTS\ISEP\3º ANO\1º SEMESTRE\LAPR5\PROJECTO\IRUDROID-TECHNOLOGIES-LAPR5\WALKMAZE\LIB\FTGL-2.1.3~RC5\MSVC\VC8\DEBUG\FTFONTGLUE.OBJ|C:\USERS\ASUS\DOCUMENTS\ISEP\3º ANO\1º SEMESTRE\LAPR5\PROJECTO\IRUDROID-TECHNOLOGIES-LAPR5\WALKMAZE\LIB\FTGL-2.1.3~RC5\MSVC\VC8\DEBUG\FTGLYPH.OBJ|C:\USERS\ASUS\DOCUMENTS\ISEP\3º ANO\1º SEMESTRE\LAPR5\PROJECTO\IRUDROID-TECHNOLOGIES-LAPR5\WALKMAZE\LIB\FTGL-2.1.3~RC5\MSVC\VC8\DEBUG\FTGLYPHCONTAINER.OBJ|C:\USERS\ASUS\DOCUMENTS\ISEP\3º ANO\1º SEMESTRE\LAPR5\PROJECTO\IRUDROID-TECHNOLOGIES-LAPR5\WALKMAZE\LIB\FTGL-2.1.3~RC5\MSVC\VC8\DEBUG\FTGLYPHGLUE.OBJ|C:\USERS\ASUS\DOCUMENTS\ISEP\3º ANO\1º SEMESTRE\LAPR5\PROJECTO\IRUDROID-TECHNOLOGIES-LAPR5\WALKMAZE\LIB\FTGL-2.1.3~RC5\MSVC\VC8\DEBUG\FTLAYOUT.OBJ|C:\USERS\ASUS\DOCUMENTS\ISEP\3º ANO\1º SEMESTRE\LAPR5\PROJECTO\IRUDROID-TECHNOLOGIES-LAPR5\WALKMAZE\LIB\FTGL-2.1.3~RC5\MSVC\VC8\DEBUG\FTLAYOUTGLUE.OBJ|C:\USERS\ASUS\DOCUMENTS\ISEP\3º ANO\1º SEMESTRE\LAPR5\PROJECTO\IRUDROID-TECHNOLOGIES-LAPR5\WALKMAZE\LIB\FTGL-2.1.3~RC5\MSVC\VC8\DEBUG\FTLIBRARY.OBJ|C:\USERS\ASUS\DOCUMENTS\ISEP\3º ANO\1º SEMESTRE\LAPR5\PROJECTO\IRUDROID-TECHNOLOGIES-LAPR5\WALKMAZE\LIB\FTGL-2.1.3~RC5\MSVC\VC8\DEBUG\FTOUTLINEFONT.OBJ|C:\USERS\ASUS\DOCUMENTS\ISEP\3º ANO\1º SEMESTRE\LAPR5\PROJECTO\IRUDROID-TECHNOLOGIES-LAPR5\WALKMAZE\LIB\FTGL-2.1.3~RC5\MSVC\VC8\DEBUG\FTOUTLINEGLYPH.OBJ|C:\USERS\ASUS\DOCUMENTS\ISEP\3º ANO\1º SEMESTRE\LAPR5\PROJECTO\IRUDROID-TECHNOLOGIES-LAPR5\WALKMAZE\LIB\FTGL-2.1.3~RC5\MSVC\VC8\DEBUG\FTPIXMAPFONT.OBJ|C:\USERS\ASUS\DOCUMENTS\ISEP\3º ANO\1º SEMESTRE\LAPR5\PROJECTO\IRUDROID-TECHNOLOGIES-LAPR5\WALKMAZE\LIB\FTGL-2.1.3~RC5\MSVC\VC8\DEBUG\FTPIXMAPGLYPH.OBJ|C:\USERS\ASUS\DOCUMENTS\ISEP\3º ANO\1º SEMESTRE\LAPR5\PROJECTO\IRUDROID-TECHNOLOGIES-LAPR5\WALKMAZE\LIB\FTGL-2.1.3~RC5\MSVC\VC8\DEBUG\FTPOINT.OBJ|C:\USERS\ASUS\DOCUMENTS\ISEP\3º ANO\1º SEMESTRE\LAPR5\PROJECTO\IRUDROID-TECHNOLOGIES-LAPR5\WALKMAZE\LIB\FTGL-2.1.3~RC5\MSVC\VC8\DEBUG\FTPOLYGONFONT.OBJ|C:\USERS\ASUS\DOCUMENTS\ISEP\3º ANO\1º SEMESTRE\LAPR5\PROJECTO\IRUDROID-TECHNOLOGIES-LAPR5\WALKMAZE\LIB\FTGL-2.1.3~RC5\MSVC\VC8\DEBUG\FTPOLYGONGLYPH.OBJ|C:\USERS\ASUS\DOCUMENTS\ISEP\3º ANO\1º SEMESTRE\LAPR5\PROJECTO\IRUDROID-TECHNOLOGIES-LAPR5\WALKMAZE\LIB\FTGL-2.1.3~RC5\MSVC\VC8\DEBUG\FTSIMPLELAYOUT.OBJ|C:\USERS\ASUS\DOCUMENTS\ISEP\3º ANO\1º SEMESTRE\LAPR5\PROJECTO\IRUDROID-TECHNOLOGIES-LAPR5\WALKMAZE\LIB\FTGL-2.1.3~RC5\MSVC\VC8\DEBUG\FTSIZE.OBJ|C:\USERS\ASUS\DOCUMENTS\ISEP\3º ANO\1º SEMESTRE\LAPR5\PROJECTO\IRUDROID-TECHNOLOGIES-LAPR5\WALKMAZE\LIB\FTGL-2.1.3~RC5\MSVC\VC8\DEBUG\FTTEXTUREFONT.OBJ|C:\USERS\ASUS\DOCUMENTS\ISEP\3º ANO\1º SEMESTRE\LAPR5\PROJECTO\IRUDROID-TECHNOLOGIES-LAPR5\WALKMAZE\LIB\FTGL-2.1.3~RC5\MSVC\VC8\DEBUG\FTTEXTUREGLYPH.OBJ|C:\USERS\ASUS\DOCUMENTS\ISEP\3º ANO\1º SEMESTRE\LAPR5\PROJECTO\IRUDROID-TECHNOLOGIES-LAPR5\WALKMAZE\LIB\FTGL-2.1.3~RC5\MSVC\VC8\DEBUG\FTVECTORISER.OBJ
C:\USERS\ASUS\DOCUMENTS\ISEP\3º ANO\1º SEMESTRE\LAPR5\PROJECTO\IRUDROID-TECHNOLOGIES-LAPR5\WALKMAZE\LIB\FTGL-2.1.3~RC5\MSVC\BUILD\FTGL_D.ILK
C:\USERS\ASUS\DOCUMENTS\ISEP\3º ANO\1º SEMESTRE\LAPR5\PROJECTO\IRUDROID-TECHNOLOGIES-LAPR5\WALKMAZE\LIB\FTGL-2.1.3~RC5\MSVC\BUILD\FTGL_D.DLL
C:\USERS\ASUS\DOCUMENTS\ISEP\3º ANO\1º SEMESTRE\LAPR5\PROJECTO\IRUDROID-TECHNOLOGIES-LAPR5\WALKMAZE\LIB\FTGL-2.1.3~RC5\MSVC\BUILD\FTGL_D.PDB
